G04 #@! TF.GenerationSoftware,KiCad,Pcbnew,8.0.1*
G04 #@! TF.CreationDate,2024-04-26T10:18:12+02:00*
G04 #@! TF.ProjectId,DCBadge24-panel,44434261-6467-4653-9234-2d70616e656c,rev1.1*
G04 #@! TF.SameCoordinates,Original*
G04 #@! TF.FileFunction,Other,Comment*
%FSLAX46Y46*%
G04 Gerber Fmt 4.6, Leading zero omitted, Abs format (unit mm)*
G04 Created by KiCad (PCBNEW 8.0.1) date 2024-04-26 10:18:12*
%MOMM*%
%LPD*%
G01*
G04 APERTURE LIST*
%ADD10C,0.120000*%
G04 APERTURE END LIST*
D10*
G04 #@! TO.C,REF\u002A\u002A*
X30344205Y-104280090D02*
X30951445Y-103447168D01*
X30951445Y-103447168D02*
X35744867Y-103195955D01*
X31048336Y-116760342D02*
X31694616Y-117627707D01*
X31694616Y-117627707D02*
X36488037Y-117376495D01*
X36490867Y-116475111D02*
X22410190Y-117213048D01*
X21755991Y-104730179D01*
X35836667Y-103992242D01*
X36490867Y-116475111D01*
X153696636Y-104280090D02*
X154303876Y-103447168D01*
X154303876Y-103447168D02*
X159097298Y-103195955D01*
X154400767Y-116760342D02*
X155047047Y-117627707D01*
X155047047Y-117627707D02*
X159840468Y-117376495D01*
X159843298Y-116475111D02*
X145762621Y-117213048D01*
X145108422Y-104730179D01*
X159189098Y-103992242D01*
X159843298Y-116475111D01*
G04 #@! TD*
M02*
