(kicad_symbol_lib (version 20220914) (generator kicad_symbol_editor)
  (symbol "IRM-H6XXT" (in_bom yes) (on_board yes)
    (property "Reference" "U" (at -3.81 5.08 0)
      (effects (font (size 1.27 1.27)))
    )
    (property "Value" "IRM-H6XXT" (at 0 -5.08 0)
      (effects (font (size 1.27 1.27)))
    )
    (property "Footprint" "" (at 0 0 0)
      (effects (font (size 1.27 1.27)) hide)
    )
    (property "Datasheet" "" (at 0 0 0)
      (effects (font (size 1.27 1.27)) hide)
    )
    (symbol "IRM-H6XXT_0_1"
      (polyline
        (pts
          (xy 1.27 1.27)
          (xy 3.81 1.27)
        )
        (stroke (width 0) (type default))
        (fill (type none))
      )
      (polyline
        (pts
          (xy 2.54 -1.27)
          (xy 2.54 -2.54)
        )
        (stroke (width 0) (type default))
        (fill (type none))
      )
      (polyline
        (pts
          (xy 2.54 1.27)
          (xy 2.54 2.54)
        )
        (stroke (width 0) (type default))
        (fill (type none))
      )
      (polyline
        (pts
          (xy 3.985 0.5219)
          (xy 4.2551 1.182)
        )
        (stroke (width 0) (type default))
        (fill (type none))
      )
      (polyline
        (pts
          (xy 3.985 0.5219)
          (xy 4.6151 0.792)
        )
        (stroke (width 0) (type default))
        (fill (type none))
      )
      (polyline
        (pts
          (xy 3.985 0.5219)
          (xy 5.255 1.7919)
        )
        (stroke (width 0) (type default))
        (fill (type none))
      )
      (polyline
        (pts
          (xy 4.145 -0.5983)
          (xy 4.4151 0.0618)
        )
        (stroke (width 0) (type default))
        (fill (type none))
      )
      (polyline
        (pts
          (xy 4.145 -0.5983)
          (xy 4.7751 -0.3282)
        )
        (stroke (width 0) (type default))
        (fill (type none))
      )
      (polyline
        (pts
          (xy 4.145 -0.5983)
          (xy 5.415 0.6717)
        )
        (stroke (width 0) (type default))
        (fill (type none))
      )
    )
    (symbol "IRM-H6XXT_1_1"
      (rectangle (start -5.08 3.81) (end 6.35 -3.81)
        (stroke (width 0) (type default))
        (fill (type background))
      )
      (polyline
        (pts
          (xy 2.54 1.27)
          (xy 1.27 -1.27)
          (xy 3.81 -1.27)
          (xy 2.54 1.27)
        )
        (stroke (width 0) (type default))
        (fill (type outline))
      )
      (pin input line (at -7.62 -2.54 0) (length 2.54)
        (name "GND" (effects (font (size 1.27 1.27))))
        (number "1" (effects (font (size 1.27 1.27))))
      )
      (pin input line (at -7.62 -2.54 0) (length 2.54) hide
        (name "GND" (effects (font (size 1.27 1.27))))
        (number "2" (effects (font (size 1.27 1.27))))
      )
      (pin input line (at -7.62 0 0) (length 2.54)
        (name "Vout" (effects (font (size 1.27 1.27))))
        (number "3" (effects (font (size 1.27 1.27))))
      )
      (pin input line (at -7.62 2.54 0) (length 2.54)
        (name "Vcc" (effects (font (size 1.27 1.27))))
        (number "4" (effects (font (size 1.27 1.27))))
      )
    )
  )
)
