{
  "board": {
    "3dviewports": [],
    "design_settings": {
      "defaults": {
        "apply_defaults_to_fp_fields": false,
        "apply_defaults_to_fp_shapes": false,
        "apply_defaults_to_fp_text": false,
        "board_outline_line_width": 0.1,
        "copper_line_width": 0.2,
        "copper_text_italic": false,
        "copper_text_size_h": 1.5,
        "copper_text_size_v": 1.5,
        "copper_text_thickness": 0.3,
        "copper_text_upright": false,
        "courtyard_line_width": 0.05,
        "dimension_precision": 4,
        "dimension_units": 3,
        "dimensions": {
          "arrow_length": 1270000,
          "extension_offset": 500000,
          "keep_text_aligned": true,
          "suppress_zeroes": false,
          "text_position": 0,
          "units_format": 1
        },
        "fab_line_width": 0.1,
        "fab_text_italic": false,
        "fab_text_size_h": 1.0,
        "fab_text_size_v": 1.0,
        "fab_text_thickness": 0.15,
        "fab_text_upright": false,
        "other_line_width": 0.15,
        "other_text_italic": false,
        "other_text_size_h": 1.0,
        "other_text_size_v": 1.0,
        "other_text_thickness": 0.15,
        "other_text_upright": false,
        "pads": {
          "drill": 0.762,
          "height": 1.524,
          "width": 1.524
        },
        "silk_line_width": 0.15,
        "silk_text_italic": false,
        "silk_text_size_h": 1.0,
        "silk_text_size_v": 1.0,
        "silk_text_thickness": 0.15,
        "silk_text_upright": false,
        "zones": {
          "min_clearance": 0.25
        }
      },
      "diff_pair_dimensions": [
        {
          "gap": 0.0,
          "via_gap": 0.0,
          "width": 0.0
        }
      ],
      "drc_exclusions": [],
      "meta": {
        "version": 2
      },
      "rule_severities": {
        "annular_width": "error",
        "clearance": "error",
        "connection_width": "warning",
        "copper_edge_clearance": "error",
        "copper_sliver": "warning",
        "courtyards_overlap": "error",
        "diff_pair_gap_out_of_range": "error",
        "diff_pair_uncoupled_length_too_long": "error",
        "drill_out_of_range": "error",
        "duplicate_footprints": "warning",
        "extra_footprint": "warning",
        "footprint": "error",
        "footprint_symbol_mismatch": "warning",
        "footprint_type_mismatch": "warning",
        "hole_clearance": "error",
        "hole_near_hole": "error",
        "invalid_outline": "error",
        "isolated_copper": "warning",
        "item_on_disabled_layer": "error",
        "items_not_allowed": "error",
        "length_out_of_range": "error",
        "lib_footprint_issues": "warning",
        "lib_footprint_mismatch": "warning",
        "malformed_courtyard": "error",
        "microvia_drill_out_of_range": "error",
        "missing_courtyard": "warning",
        "missing_footprint": "warning",
        "net_conflict": "warning",
        "npth_inside_courtyard": "warning",
        "padstack": "warning",
        "pth_inside_courtyard": "warning",
        "shorting_items": "error",
        "silk_edge_clearance": "warning",
        "silk_over_copper": "warning",
        "silk_overlap": "warning",
        "skew_out_of_range": "error",
        "solder_mask_bridge": "error",
        "starved_thermal": "warning",
        "text_height": "warning",
        "text_thickness": "warning",
        "through_hole_pad_without_hole": "error",
        "too_many_vias": "error",
        "track_dangling": "warning",
        "track_width": "error",
        "tracks_crossing": "error",
        "unconnected_items": "error",
        "unresolved_variable": "error",
        "via_dangling": "warning",
        "zones_intersect": "error"
      },
      "rules": {
        "max_error": 0.005,
        "min_clearance": 0.0,
        "min_connection": 0.0,
        "min_copper_edge_clearance": 0.0,
        "min_hole_clearance": 0.2,
        "min_hole_to_hole": 0.2,
        "min_microvia_diameter": 0.2,
        "min_microvia_drill": 0.1,
        "min_resolved_spokes": 2,
        "min_silk_clearance": 0.0,
        "min_text_height": 0.7,
        "min_text_thickness": 0.08,
        "min_through_hole_diameter": 0.3,
        "min_track_width": 0.0,
        "min_via_annular_width": 0.1,
        "min_via_diameter": 0.5,
        "solder_mask_clearance": 0.0,
        "solder_mask_min_width": 0.0,
        "solder_mask_to_copper_clearance": 0.005,
        "use_height_for_length_calcs": true
      },
      "teardrop_options": [
        {
          "td_onpadsmd": true,
          "td_onroundshapesonly": false,
          "td_ontrackend": false,
          "td_onviapad": true
        }
      ],
      "teardrop_parameters": [
        {
          "td_allow_use_two_tracks": true,
          "td_curve_segcount": 0,
          "td_height_ratio": 1.0,
          "td_length_ratio": 0.5,
          "td_maxheight": 2.0,
          "td_maxlen": 1.0,
          "td_on_pad_in_zone": false,
          "td_target_name": "td_round_shape",
          "td_width_to_size_filter_ratio": 0.9
        },
        {
          "td_allow_use_two_tracks": true,
          "td_curve_segcount": 0,
          "td_height_ratio": 1.0,
          "td_length_ratio": 0.5,
          "td_maxheight": 2.0,
          "td_maxlen": 1.0,
          "td_on_pad_in_zone": false,
          "td_target_name": "td_rect_shape",
          "td_width_to_size_filter_ratio": 0.9
        },
        {
          "td_allow_use_two_tracks": true,
          "td_curve_segcount": 0,
          "td_height_ratio": 1.0,
          "td_length_ratio": 0.5,
          "td_maxheight": 2.0,
          "td_maxlen": 1.0,
          "td_on_pad_in_zone": false,
          "td_target_name": "td_track_end",
          "td_width_to_size_filter_ratio": 0.9
        }
      ],
      "track_widths": [
        0.0,
        0.2,
        0.25,
        0.5,
        1.0
      ],
      "tuning_pattern_settings": {
        "diff_pair_defaults": {
          "corner_radius_percentage": 80,
          "corner_style": 1,
          "max_amplitude": 1.0,
          "min_amplitude": 0.2,
          "single_sided": false,
          "spacing": 1.0
        },
        "diff_pair_skew_defaults": {
          "corner_radius_percentage": 80,
          "corner_style": 1,
          "max_amplitude": 1.0,
          "min_amplitude": 0.2,
          "single_sided": false,
          "spacing": 0.6
        },
        "single_track_defaults": {
          "corner_radius_percentage": 80,
          "corner_style": 1,
          "max_amplitude": 1.0,
          "min_amplitude": 0.2,
          "single_sided": false,
          "spacing": 0.6
        }
      },
      "via_dimensions": [
        {
          "diameter": 0.0,
          "drill": 0.0
        },
        {
          "diameter": 0.6,
          "drill": 0.3
        }
      ],
      "zones_allow_external_fillets": false
    },
    "ipc2581": {
      "dist": "",
      "distpn": "",
      "internal_id": "",
      "mfg": "",
      "mpn": ""
    },
    "layer_presets": [],
    "viewports": []
  },
  "boards": [],
  "cvpcb": {
    "equivalence_files": []
  },
  "libraries": {
    "pinned_footprint_libs": [],
    "pinned_symbol_libs": []
  },
  "meta": {
    "filename": "DCBadge24-panel.kicad_pro",
    "version": 1
  },
  "net_settings": {
    "classes": [
      {
        "bus_width": 12,
        "clearance": 0.2,
        "diff_pair_gap": 0.25,
        "diff_pair_via_gap": 0.25,
        "diff_pair_width": 0.2,
        "line_style": 0,
        "microvia_diameter": 0.3,
        "microvia_drill": 0.1,
        "name": "Default",
        "pcb_color": "rgba(0, 0, 0, 0.000)",
        "schematic_color": "rgba(0, 0, 0, 0.000)",
        "track_width": 0.25,
        "via_diameter": 0.6,
        "via_drill": 0.3,
        "wire_width": 6
      },
      {
        "bus_width": 12,
        "clearance": 0.2,
        "diff_pair_gap": 0.25,
        "diff_pair_via_gap": 0.25,
        "diff_pair_width": 0.2,
        "line_style": 0,
        "microvia_diameter": 0.3,
        "microvia_drill": 0.1,
        "name": "Board_0-Default",
        "pcb_color": "rgba(0, 0, 0, 0.000)",
        "schematic_color": "rgba(0, 0, 0, 0.000)",
        "track_width": 0.25,
        "via_diameter": 0.6,
        "via_drill": 0.3,
        "wire_width": 6
      },
      {
        "bus_width": 12,
        "clearance": 0.2,
        "diff_pair_gap": 0.25,
        "diff_pair_via_gap": 0.25,
        "diff_pair_width": 0.2,
        "line_style": 0,
        "microvia_diameter": 0.3,
        "microvia_drill": 0.1,
        "name": "Board_1-Default",
        "pcb_color": "rgba(0, 0, 0, 0.000)",
        "schematic_color": "rgba(0, 0, 0, 0.000)",
        "track_width": 0.25,
        "via_diameter": 0.6,
        "via_drill": 0.3,
        "wire_width": 6
      }
    ],
    "meta": {
      "version": 3
    },
    "net_colors": null,
    "netclass_assignments": null,
    "netclass_patterns": [
      {
        "netclass": "Board_0-Default",
        "pattern": "Board_0-/nRST"
      },
      {
        "netclass": "Board_0-Default",
        "pattern": "Board_0-unconnected-(U2-PA9-Pad30)"
      },
      {
        "netclass": "Board_0-Default",
        "pattern": "Board_0-Net-(D3-A)"
      },
      {
        "netclass": "Board_0-Default",
        "pattern": "Board_0-/IR_RX_EN"
      },
      {
        "netclass": "Board_0-Default",
        "pattern": "Board_0-unconnected-(J1-Pin_18-Pad18)"
      },
      {
        "netclass": "Board_0-Default",
        "pattern": "Board_0-Net-(JP3-B)"
      },
      {
        "netclass": "Board_0-Default",
        "pattern": "Board_0-/EPD_VGL"
      },
      {
        "netclass": "Board_0-Default",
        "pattern": "Board_0-/EPD_CS"
      },
      {
        "netclass": "Board_0-Default",
        "pattern": "Board_0-/EPD_VGH"
      },
      {
        "netclass": "Board_0-Default",
        "pattern": "Board_0-/TOUCH_KEY_1"
      },
      {
        "netclass": "Board_0-Default",
        "pattern": "Board_0-GND"
      },
      {
        "netclass": "Board_0-Default",
        "pattern": "Board_0-/LED_ROW_1"
      },
      {
        "netclass": "Board_0-Default",
        "pattern": "Board_0-/LED_R2"
      },
      {
        "netclass": "Board_0-Default",
        "pattern": "Board_0-Net-(JP1-B)"
      },
      {
        "netclass": "Board_0-Default",
        "pattern": "Board_0-/EPD_PREVGH"
      },
      {
        "netclass": "Board_0-Default",
        "pattern": "Board_0-/EPD_POWER"
      },
      {
        "netclass": "Board_0-Default",
        "pattern": "Board_0-unconnected-(J1-Pin_24-Pad24)"
      },
      {
        "netclass": "Board_0-Default",
        "pattern": "Board_0-/EPD_GDR"
      },
      {
        "netclass": "Board_0-Default",
        "pattern": "Board_0-/EPD_RST"
      },
      {
        "netclass": "Board_0-Default",
        "pattern": "Board_0-Net-(U1-Vcc)"
      },
      {
        "netclass": "Board_0-Default",
        "pattern": "Board_0-unconnected-(U2-PH0-Pad5)"
      },
      {
        "netclass": "Board_0-Default",
        "pattern": "Board_0-/LSE2"
      },
      {
        "netclass": "Board_0-Default",
        "pattern": "Board_0-unconnected-(U2-PA11-Pad32)"
      },
      {
        "netclass": "Board_0-Default",
        "pattern": "Board_0-/UART_RX"
      },
      {
        "netclass": "Board_0-Default",
        "pattern": "Board_0-/LED_ROW_4"
      },
      {
        "netclass": "Board_0-Default",
        "pattern": "Board_0-/LED_COL_4"
      },
      {
        "netclass": "Board_0-Default",
        "pattern": "Board_0-/EPD_VDD"
      },
      {
        "netclass": "Board_0-Default",
        "pattern": "Board_0-Net-(D38-A)"
      },
      {
        "netclass": "Board_0-Default",
        "pattern": "Board_0-VDD"
      },
      {
        "netclass": "Board_0-Default",
        "pattern": "Board_0-/LED_ROW_3"
      },
      {
        "netclass": "Board_0-Default",
        "pattern": "Board_0-/EPD_VSH"
      },
      {
        "netclass": "Board_0-Default",
        "pattern": "Board_0-Net-(JP4-B)"
      },
      {
        "netclass": "Board_0-Default",
        "pattern": "Board_0-/LED_COL_6"
      },
      {
        "netclass": "Board_0-Default",
        "pattern": "Board_0-Net-(U3-~{MR})"
      },
      {
        "netclass": "Board_0-Default",
        "pattern": "Board_0-Net-(BT1-+)"
      },
      {
        "netclass": "Board_0-Default",
        "pattern": "Board_0-Net-(D36-A)"
      },
      {
        "netclass": "Board_0-Default",
        "pattern": "Board_0-Net-(D1-A)"
      },
      {
        "netclass": "Board_0-Default",
        "pattern": "Board_0-/EPD_BUSY"
      },
      {
        "netclass": "Board_0-Default",
        "pattern": "Board_0-/EPD_RESE"
      },
      {
        "netclass": "Board_0-Default",
        "pattern": "Board_0-/SWDIO"
      },
      {
        "netclass": "Board_0-Default",
        "pattern": "Board_0-Net-(JP2-B)"
      },
      {
        "netclass": "Board_0-Default",
        "pattern": "Board_0-/LED_COL_2"
      },
      {
        "netclass": "Board_0-Default",
        "pattern": "Board_0-unconnected-(U2-PB0-Pad18)"
      },
      {
        "netclass": "Board_0-Default",
        "pattern": "Board_0-/SWCLK"
      },
      {
        "netclass": "Board_0-Default",
        "pattern": "Board_0-/LED_COL_3"
      },
      {
        "netclass": "Board_0-Default",
        "pattern": "Board_0-unconnected-(U2-PA15-Pad38)"
      },
      {
        "netclass": "Board_0-Default",
        "pattern": "Board_0-/LED_COL_7"
      },
      {
        "netclass": "Board_0-Default",
        "pattern": "Board_0-/IR_RECV"
      },
      {
        "netclass": "Board_0-Default",
        "pattern": "Board_0-/LIGHT_DETECT"
      },
      {
        "netclass": "Board_0-Default",
        "pattern": "Board_0-/EPD_SDI"
      },
      {
        "netclass": "Board_0-Default",
        "pattern": "Board_0-/EPD_VPP"
      },
      {
        "netclass": "Board_0-Default",
        "pattern": "Board_0-/LED_ROW_2"
      },
      {
        "netclass": "Board_0-Default",
        "pattern": "Board_0-/LED_COL_1"
      },
      {
        "netclass": "Board_0-Default",
        "pattern": "Board_0-/EPD_CLK"
      },
      {
        "netclass": "Board_0-Default",
        "pattern": "Board_0-Net-(U2-VDDA)"
      },
      {
        "netclass": "Board_0-Default",
        "pattern": "Board_0-unconnected-(U2-PC13-Pad2)"
      },
      {
        "netclass": "Board_0-Default",
        "pattern": "Board_0-unconnected-(U2-PA5-Pad15)"
      },
      {
        "netclass": "Board_0-Default",
        "pattern": "Board_0-/EPD_D{slash}C"
      },
      {
        "netclass": "Board_0-Default",
        "pattern": "Board_0-/EPD_EN"
      },
      {
        "netclass": "Board_0-Default",
        "pattern": "Board_0-/BOOT0"
      },
      {
        "netclass": "Board_0-Default",
        "pattern": "Board_0-/LED_R3"
      },
      {
        "netclass": "Board_0-Default",
        "pattern": "Board_0-/EPD_PREVGL"
      },
      {
        "netclass": "Board_0-Default",
        "pattern": "Board_0-Net-(D36-K)"
      },
      {
        "netclass": "Board_0-Default",
        "pattern": "Board_0-/LSE1"
      },
      {
        "netclass": "Board_0-Default",
        "pattern": "Board_0-Net-(U3-SENSE)"
      },
      {
        "netclass": "Board_0-Default",
        "pattern": "Board_0-/LED_R1"
      },
      {
        "netclass": "Board_0-Default",
        "pattern": "Board_0-unconnected-(U2-PH1-Pad6)"
      },
      {
        "netclass": "Board_0-Default",
        "pattern": "Board_0-unconnected-(J1-Pin_19-Pad19)"
      },
      {
        "netclass": "Board_0-Default",
        "pattern": "Board_0-/EPD_BS"
      },
      {
        "netclass": "Board_0-Default",
        "pattern": "Board_0-unconnected-(U3-CT-Pad4)"
      },
      {
        "netclass": "Board_0-Default",
        "pattern": "Board_0-/UART_TX"
      },
      {
        "netclass": "Board_0-Default",
        "pattern": "Board_0-/IR_TX"
      },
      {
        "netclass": "Board_0-Default",
        "pattern": "Board_0-Net-(D37-K)"
      },
      {
        "netclass": "Board_0-Default",
        "pattern": "Board_0-/EPD_VSL"
      },
      {
        "netclass": "Board_0-Default",
        "pattern": "Board_0-/EPD_VCOM"
      },
      {
        "netclass": "Board_0-Default",
        "pattern": "Board_0-/LED_R4"
      },
      {
        "netclass": "Board_0-Default",
        "pattern": "Board_0-/LED_COL_5"
      },
      {
        "netclass": "Board_1-Default",
        "pattern": "Board_1-/EPD_RST"
      },
      {
        "netclass": "Board_1-Default",
        "pattern": "Board_1-/EPD_VGL"
      },
      {
        "netclass": "Board_1-Default",
        "pattern": "Board_1-/nRST"
      },
      {
        "netclass": "Board_1-Default",
        "pattern": "Board_1-/EPD_CS"
      },
      {
        "netclass": "Board_1-Default",
        "pattern": "Board_1-unconnected-(U3-CT-Pad4)"
      },
      {
        "netclass": "Board_1-Default",
        "pattern": "Board_1-/UART_RX"
      },
      {
        "netclass": "Board_1-Default",
        "pattern": "Board_1-unconnected-(U2-PA9-Pad30)"
      },
      {
        "netclass": "Board_1-Default",
        "pattern": "Board_1-Net-(JP1-B)"
      },
      {
        "netclass": "Board_1-Default",
        "pattern": "Board_1-/LIGHT_DETECT"
      },
      {
        "netclass": "Board_1-Default",
        "pattern": "Board_1-/EPD_PREVGH"
      },
      {
        "netclass": "Board_1-Default",
        "pattern": "Board_1-/EPD_D{slash}C"
      },
      {
        "netclass": "Board_1-Default",
        "pattern": "Board_1-/LSE2"
      },
      {
        "netclass": "Board_1-Default",
        "pattern": "Board_1-/IR_TX"
      },
      {
        "netclass": "Board_1-Default",
        "pattern": "Board_1-unconnected-(J1-Pin_19-Pad19)"
      },
      {
        "netclass": "Board_1-Default",
        "pattern": "Board_1-/LED_ROW_1"
      },
      {
        "netclass": "Board_1-Default",
        "pattern": "Board_1-/LED_ROW_4"
      },
      {
        "netclass": "Board_1-Default",
        "pattern": "Board_1-unconnected-(J1-Pin_18-Pad18)"
      },
      {
        "netclass": "Board_1-Default",
        "pattern": "Board_1-/UART_TX"
      },
      {
        "netclass": "Board_1-Default",
        "pattern": "Board_1-Net-(JP2-B)"
      },
      {
        "netclass": "Board_1-Default",
        "pattern": "Board_1-/EPD_GDR"
      },
      {
        "netclass": "Board_1-Default",
        "pattern": "Board_1-/LED_ROW_2"
      },
      {
        "netclass": "Board_1-Default",
        "pattern": "Board_1-unconnected-(U2-PH1-Pad6)"
      },
      {
        "netclass": "Board_1-Default",
        "pattern": "Board_1-Net-(U1-Vcc)"
      },
      {
        "netclass": "Board_1-Default",
        "pattern": "Board_1-/EPD_PREVGL"
      },
      {
        "netclass": "Board_1-Default",
        "pattern": "Board_1-/EPD_SDI"
      },
      {
        "netclass": "Board_1-Default",
        "pattern": "Board_1-/EPD_VPP"
      },
      {
        "netclass": "Board_1-Default",
        "pattern": "Board_1-/EPD_VDD"
      },
      {
        "netclass": "Board_1-Default",
        "pattern": "Board_1-/EPD_CLK"
      },
      {
        "netclass": "Board_1-Default",
        "pattern": "Board_1-/LED_COL_4"
      },
      {
        "netclass": "Board_1-Default",
        "pattern": "Board_1-/LED_R3"
      },
      {
        "netclass": "Board_1-Default",
        "pattern": "Board_1-/EPD_POWER"
      },
      {
        "netclass": "Board_1-Default",
        "pattern": "Board_1-/EPD_RESE"
      },
      {
        "netclass": "Board_1-Default",
        "pattern": "Board_1-unconnected-(J1-Pin_24-Pad24)"
      },
      {
        "netclass": "Board_1-Default",
        "pattern": "Board_1-unconnected-(U2-PA5-Pad15)"
      },
      {
        "netclass": "Board_1-Default",
        "pattern": "Board_1-/LSE1"
      },
      {
        "netclass": "Board_1-Default",
        "pattern": "Board_1-unconnected-(U2-PH0-Pad5)"
      },
      {
        "netclass": "Board_1-Default",
        "pattern": "Board_1-/IR_RX_EN"
      },
      {
        "netclass": "Board_1-Default",
        "pattern": "Board_1-/LED_COL_5"
      },
      {
        "netclass": "Board_1-Default",
        "pattern": "Board_1-/LED_COL_3"
      },
      {
        "netclass": "Board_1-Default",
        "pattern": "Board_1-Net-(JP4-B)"
      },
      {
        "netclass": "Board_1-Default",
        "pattern": "Board_1-/LED_R1"
      },
      {
        "netclass": "Board_1-Default",
        "pattern": "Board_1-/EPD_BUSY"
      },
      {
        "netclass": "Board_1-Default",
        "pattern": "Board_1-Net-(BT1-+)"
      },
      {
        "netclass": "Board_1-Default",
        "pattern": "Board_1-unconnected-(U2-PA11-Pad32)"
      },
      {
        "netclass": "Board_1-Default",
        "pattern": "Board_1-/LED_R4"
      },
      {
        "netclass": "Board_1-Default",
        "pattern": "Board_1-/LED_ROW_3"
      },
      {
        "netclass": "Board_1-Default",
        "pattern": "Board_1-/LED_COL_1"
      },
      {
        "netclass": "Board_1-Default",
        "pattern": "Board_1-Net-(D36-A)"
      },
      {
        "netclass": "Board_1-Default",
        "pattern": "Board_1-/IR_RECV"
      },
      {
        "netclass": "Board_1-Default",
        "pattern": "Board_1-/LED_COL_7"
      },
      {
        "netclass": "Board_1-Default",
        "pattern": "Board_1-GND"
      },
      {
        "netclass": "Board_1-Default",
        "pattern": "Board_1-unconnected-(U2-PA15-Pad38)"
      },
      {
        "netclass": "Board_1-Default",
        "pattern": "Board_1-/BOOT0"
      },
      {
        "netclass": "Board_1-Default",
        "pattern": "Board_1-/LED_COL_2"
      },
      {
        "netclass": "Board_1-Default",
        "pattern": "Board_1-unconnected-(U2-PC13-Pad2)"
      },
      {
        "netclass": "Board_1-Default",
        "pattern": "Board_1-/EPD_VCOM"
      },
      {
        "netclass": "Board_1-Default",
        "pattern": "Board_1-/EPD_VSH"
      },
      {
        "netclass": "Board_1-Default",
        "pattern": "Board_1-/EPD_EN"
      },
      {
        "netclass": "Board_1-Default",
        "pattern": "Board_1-Net-(D3-A)"
      },
      {
        "netclass": "Board_1-Default",
        "pattern": "Board_1-VDD"
      },
      {
        "netclass": "Board_1-Default",
        "pattern": "Board_1-unconnected-(U2-PB0-Pad18)"
      },
      {
        "netclass": "Board_1-Default",
        "pattern": "Board_1-/EPD_VSL"
      },
      {
        "netclass": "Board_1-Default",
        "pattern": "Board_1-/LED_R2"
      },
      {
        "netclass": "Board_1-Default",
        "pattern": "Board_1-Net-(U2-VDDA)"
      },
      {
        "netclass": "Board_1-Default",
        "pattern": "Board_1-Net-(D38-A)"
      },
      {
        "netclass": "Board_1-Default",
        "pattern": "Board_1-Net-(D1-A)"
      },
      {
        "netclass": "Board_1-Default",
        "pattern": "Board_1-/EPD_BS"
      },
      {
        "netclass": "Board_1-Default",
        "pattern": "Board_1-/TOUCH_KEY_1"
      },
      {
        "netclass": "Board_1-Default",
        "pattern": "Board_1-/SWCLK"
      },
      {
        "netclass": "Board_1-Default",
        "pattern": "Board_1-Net-(U3-~{MR})"
      },
      {
        "netclass": "Board_1-Default",
        "pattern": "Board_1-/LED_COL_6"
      },
      {
        "netclass": "Board_1-Default",
        "pattern": "Board_1-/EPD_VGH"
      },
      {
        "netclass": "Board_1-Default",
        "pattern": "Board_1-Net-(D37-K)"
      },
      {
        "netclass": "Board_1-Default",
        "pattern": "Board_1-Net-(U3-SENSE)"
      },
      {
        "netclass": "Board_1-Default",
        "pattern": "Board_1-/SWDIO"
      },
      {
        "netclass": "Board_1-Default",
        "pattern": "Board_1-Net-(D36-K)"
      },
      {
        "netclass": "Board_1-Default",
        "pattern": "Board_1-Net-(JP3-B)"
      }
    ]
  },
  "pcbnew": {
    "last_paths": {
      "gencad": "",
      "idf": "",
      "netlist": "",
      "plot": "",
      "pos_files": "",
      "specctra_dsn": "",
      "step": "",
      "svg": "",
      "vrml": ""
    },
    "page_layout_descr_file": ""
  },
  "schematic": {
    "legacy_lib_dir": "",
    "legacy_lib_list": []
  },
  "sheets": [],
  "text_variables": {}
}