(module LOGO (layer F.Cu)
  (at 0 0)
 (fp_text reference "G***" (at 0 0) (layer F.SilkS) hide
  (effects (font (thickness 0.3)))
  )
  (fp_text value "LOGO" (at 0.75 0) (layer F.SilkS) hide
  (effects (font (thickness 0.3)))
  )
  (fp_poly (pts (xy -3.301572 -2.893521) (xy -3.301428 -2.805175) (xy -3.301286 -2.713589) (xy -3.301149 -2.619204) (xy -3.301015 -2.522456) (xy -3.300885 -2.423787) (xy -3.300760 -2.323634) (xy -3.300639 -2.222437)
     (xy -3.300524 -2.120634) (xy -3.300415 -2.018666) (xy -3.300313 -1.916971) (xy -3.300217 -1.815988) (xy -3.300128 -1.716157) (xy -3.300046 -1.617915) (xy -3.299973 -1.521703) (xy -3.299908 -1.427960)
     (xy -3.299851 -1.337124) (xy -3.299804 -1.249635) (xy -3.299766 -1.165932) (xy -3.299738 -1.086453) (xy -3.299721 -1.011638) (xy -3.299715 -0.941927) (xy -3.299715 -0.937102) (xy -3.299714 -0.086394)
     (xy -3.649940 -0.086394) (xy -3.651796 0.793576) (xy -3.651962 0.875551) (xy -3.652124 0.962251) (xy -3.652281 1.053081) (xy -3.652433 1.147445) (xy -3.652579 1.244747) (xy -3.652719 1.344391)
     (xy -3.652851 1.445781) (xy -3.652975 1.548321) (xy -3.653092 1.651416) (xy -3.653199 1.754469) (xy -3.653296 1.856885) (xy -3.653383 1.958067) (xy -3.653459 2.057420) (xy -3.653524 2.154348)
     (xy -3.653576 2.248254) (xy -3.653615 2.338543) (xy -3.653641 2.424620) (xy -3.653652 2.505887) (xy -3.653653 2.527973) (xy -3.653659 2.600614) (xy -3.653679 2.673776) (xy -3.653710 2.747131)
     (xy -3.653753 2.820348) (xy -3.653807 2.893099) (xy -3.653871 2.965055) (xy -3.653945 3.035885) (xy -3.654029 3.105261) (xy -3.654122 3.172853) (xy -3.654223 3.238331) (xy -3.654333 3.301367)
     (xy -3.654449 3.361632) (xy -3.654573 3.418795) (xy -3.654703 3.472527) (xy -3.654838 3.522499) (xy -3.654979 3.568382) (xy -3.655125 3.609847) (xy -3.655274 3.646563) (xy -3.655428 3.678202)
     (xy -3.655507 3.692209) (xy -3.657361 4.002019) (xy -4.180381 4.002019) (xy -4.180381 -0.089181) (xy -3.829229 -0.089181) (xy -3.829229 -3.999231) (xy -3.303428 -3.999231) (xy -3.301572 -2.893521) )(layer F.Mask) (width  0.010000)
  )
  (fp_poly (pts (xy 4.180382 -0.086394) (xy 3.829230 -0.086394) (xy 3.829230 4.002019) (xy 3.302502 4.002019) (xy 3.302502 -0.089139) (xy 3.478775 -0.089857) (xy 3.655048 -0.090574) (xy 3.655746 -2.044903)
     (xy 3.656445 -3.999231) (xy 4.180382 -3.999231) (xy 4.180382 -0.086394) )(layer F.Mask) (width  0.010000)
  )
  (fp_poly (pts (xy -0.730881 -3.597218) (xy -0.721204 -3.587035) (xy -0.711707 -3.576886) (xy -0.703899 -3.568390) (xy -0.701333 -3.565530) (xy -0.691162 -3.554048) (xy -0.690462 -2.141414) (xy -0.689763 -0.728779)
     (xy -0.683940 -0.728779) (xy -0.680234 -0.730789) (xy -0.672680 -0.736810) (xy -0.661289 -0.746834) (xy -0.646071 -0.760850) (xy -0.627039 -0.778849) (xy -0.604201 -0.800819) (xy -0.590578 -0.814052)
     (xy -0.550978 -0.852513) (xy -0.514860 -0.887317) (xy -0.481824 -0.918806) (xy -0.451467 -0.947318) (xy -0.423388 -0.973195) (xy -0.397185 -0.996777) (xy -0.372455 -1.018404) (xy -0.348797 -1.038417)
     (xy -0.325809 -1.057156) (xy -0.303090 -1.074960) (xy -0.280236 -1.092172) (xy -0.256847 -1.109130) (xy -0.232520 -1.126175) (xy -0.206854 -1.143648) (xy -0.181150 -1.160765) (xy -0.151056 -1.180404)
     (xy -0.124232 -1.197361) (xy -0.099498 -1.212316) (xy -0.075676 -1.225947) (xy -0.051588 -1.238932) (xy -0.026055 -1.251951) (xy -0.004180 -1.262660) (xy 0.076184 -1.298892) (xy 0.156934 -1.330137)
     (xy 0.238506 -1.356493) (xy 0.321336 -1.378055) (xy 0.405862 -1.394920) (xy 0.492519 -1.407185) (xy 0.581745 -1.414946) (xy 0.673977 -1.418300) (xy 0.700911 -1.418462) (xy 0.780271 -1.416712)
     (xy 0.855659 -1.411489) (xy 0.927522 -1.402716) (xy 0.996308 -1.390316) (xy 1.062463 -1.374214) (xy 1.126435 -1.354333) (xy 1.169114 -1.338538) (xy 1.235351 -1.309456) (xy 1.298582 -1.275724)
     (xy 1.358701 -1.237449) (xy 1.415606 -1.194738) (xy 1.469192 -1.147700) (xy 1.519356 -1.096442) (xy 1.565992 -1.041071) (xy 1.608998 -0.981696) (xy 1.648269 -0.918424) (xy 1.683702 -0.851362)
     (xy 1.715192 -0.780619) (xy 1.720318 -0.767796) (xy 1.746771 -0.694047) (xy 1.769769 -0.616325) (xy 1.789231 -0.535092) (xy 1.805078 -0.450813) (xy 1.817229 -0.363948) (xy 1.825605 -0.274961)
     (xy 1.830126 -0.184315) (xy 1.830958 -0.127501) (xy 1.831008 -0.086394) (xy 1.479855 -0.086394) (xy 1.479855 0.989467) (xy 1.479863 1.096832) (xy 1.479885 1.198635) (xy 1.479922 1.294887)
     (xy 1.479974 1.385599) (xy 1.480040 1.470784) (xy 1.480122 1.550452) (xy 1.480218 1.624616) (xy 1.480329 1.693286) (xy 1.480455 1.756474) (xy 1.480596 1.814191) (xy 1.480753 1.866450)
     (xy 1.480924 1.913261) (xy 1.481110 1.954636) (xy 1.481312 1.990587) (xy 1.481528 2.021125) (xy 1.481760 2.046261) (xy 1.482007 2.066007) (xy 1.482269 2.080375) (xy 1.482547 2.089376)
     (xy 1.482739 2.092391) (xy 1.489088 2.137394) (xy 1.498189 2.177855) (xy 1.510279 2.214207) (xy 1.525596 2.246883) (xy 1.544378 2.276315) (xy 1.566863 2.302937) (xy 1.593287 2.327181)
     (xy 1.623888 2.349480) (xy 1.647207 2.363288) (xy 1.675602 2.377555) (xy 1.708612 2.392093) (xy 1.745779 2.406715) (xy 1.786640 2.421233) (xy 1.830737 2.435458) (xy 1.845342 2.439884)
     (xy 1.865259 2.445065) (xy 1.889628 2.450160) (xy 1.917330 2.454997) (xy 1.947244 2.459407) (xy 1.978248 2.463219) (xy 2.009223 2.466264) (xy 2.028879 2.467755) (xy 2.041393 2.468681)
     (xy 2.052586 2.469689) (xy 2.060738 2.470615) (xy 2.063019 2.470973) (xy 2.070683 2.472442) (xy 2.070683 2.745118) (xy 0.078034 2.745118) (xy 0.078034 2.472442) (xy 0.085698 2.470973)
     (xy 0.092149 2.470077) (xy 0.102172 2.469054) (xy 0.113775 2.468104) (xy 0.115658 2.467971) (xy 0.130415 2.466916) (xy 0.149659 2.465478) (xy 0.172321 2.463741) (xy 0.197332 2.461789)
     (xy 0.223625 2.459707) (xy 0.250131 2.457578) (xy 0.275782 2.455486) (xy 0.298201 2.453624) (xy 0.348397 2.448510) (xy 0.393633 2.441945) (xy 0.434362 2.433806) (xy 0.471037 2.423965)
     (xy 0.504113 2.412297) (xy 0.534042 2.398676) (xy 0.561280 2.382978) (xy 0.567139 2.379109) (xy 0.595101 2.356907) (xy 0.620369 2.330142) (xy 0.642655 2.299275) (xy 0.661672 2.264772)
     (xy 0.677134 2.227094) (xy 0.688752 2.186705) (xy 0.690076 2.180766) (xy 0.691103 2.176059) (xy 0.692070 2.171650) (xy 0.692980 2.167370) (xy 0.693834 2.163054) (xy 0.694635 2.158531)
     (xy 0.695383 2.153634) (xy 0.696082 2.148196) (xy 0.696732 2.142048) (xy 0.697335 2.135022) (xy 0.697892 2.126950) (xy 0.698407 2.117664) (xy 0.698880 2.106997) (xy 0.699313 2.094780)
     (xy 0.699709 2.080845) (xy 0.700067 2.065025) (xy 0.700392 2.047151) (xy 0.700683 2.027055) (xy 0.700944 2.004569) (xy 0.701175 1.979526) (xy 0.701378 1.951757) (xy 0.701556 1.921094)
     (xy 0.701709 1.887370) (xy 0.701840 1.850416) (xy 0.701951 1.810064) (xy 0.702042 1.766147) (xy 0.702117 1.718496) (xy 0.702176 1.666943) (xy 0.702221 1.611321) (xy 0.702255 1.551461)
     (xy 0.702279 1.487196) (xy 0.702294 1.418357) (xy 0.702302 1.344776) (xy 0.702306 1.266286) (xy 0.702306 1.182718) (xy 0.702305 1.093905) (xy 0.702304 1.004116) (xy 0.702304 -0.089139)
     (xy 0.878577 -0.089857) (xy 1.054850 -0.090574) (xy 1.054279 -0.130985) (xy 1.051347 -0.202120) (xy 1.044525 -0.269462) (xy 1.033677 -0.333339) (xy 1.018667 -0.394080) (xy 0.999358 -0.452012)
     (xy 0.975615 -0.507464) (xy 0.947299 -0.560765) (xy 0.914275 -0.612242) (xy 0.876407 -0.662223) (xy 0.833558 -0.711037) (xy 0.798146 -0.747005) (xy 0.767711 -0.775269) (xy 0.738452 -0.799604)
     (xy 0.708966 -0.821024) (xy 0.677848 -0.840539) (xy 0.643692 -0.859163) (xy 0.639599 -0.861247) (xy 0.590380 -0.883462) (xy 0.539853 -0.900866) (xy 0.487131 -0.913727) (xy 0.440478 -0.921216)
     (xy 0.426767 -0.922771) (xy 0.413246 -0.923893) (xy 0.398847 -0.924612) (xy 0.382505 -0.924960) (xy 0.363154 -0.924967) (xy 0.339727 -0.924666) (xy 0.329001 -0.924466) (xy 0.274958 -0.922498)
     (xy 0.225018 -0.918733) (xy 0.177955 -0.913014) (xy 0.132546 -0.905183) (xy 0.087566 -0.895083) (xy 0.075247 -0.891923) (xy 0.064171 -0.889021) (xy 0.054387 -0.886475) (xy 0.047833 -0.884792)
     (xy 0.047378 -0.884677) (xy 0.033574 -0.880869) (xy 0.016170 -0.875444) (xy -0.005245 -0.868265) (xy -0.031082 -0.859197) (xy -0.054345 -0.850805) (xy -0.101561 -0.832437) (xy -0.149652 -0.811506)
     (xy -0.197699 -0.788511) (xy -0.244781 -0.763952) (xy -0.289976 -0.738327) (xy -0.332364 -0.712136) (xy -0.371024 -0.685878) (xy -0.402710 -0.661929) (xy -0.435194 -0.635270) (xy -0.464053 -0.610187)
     (xy -0.490122 -0.585773) (xy -0.514235 -0.561123) (xy -0.537229 -0.535331) (xy -0.559939 -0.507490) (xy -0.583201 -0.476696) (xy -0.607849 -0.442043) (xy -0.614805 -0.431972) (xy -0.625837 -0.415890)
     (xy -0.634892 -0.402596) (xy -0.642850 -0.390768) (xy -0.650587 -0.379085) (xy -0.658981 -0.366225) (xy -0.668910 -0.350867) (xy -0.676801 -0.338610) (xy -0.691141 -0.316315) (xy -0.691149 -0.201355)
     (xy -0.691156 -0.086394) (xy -1.042384 -0.086394) (xy -1.041546 1.002595) (xy -1.040707 2.091585) (xy -1.034591 2.119292) (xy -1.025511 2.155750) (xy -1.015268 2.187600) (xy -1.003480 2.215755)
     (xy -0.989768 2.241125) (xy -0.974198 2.264028) (xy -0.951847 2.290405) (xy -0.925801 2.314903) (xy -0.895762 2.337706) (xy -0.861429 2.358999) (xy -0.822503 2.378966) (xy -0.778683 2.397791)
     (xy -0.729670 2.415658) (xy -0.724599 2.417357) (xy -0.677161 2.431471) (xy -0.625517 2.443766) (xy -0.570800 2.454023) (xy -0.514143 2.462022) (xy -0.470302 2.466473) (xy -0.456161 2.467719)
     (xy -0.443237 2.468959) (xy -0.433000 2.470045) (xy -0.427095 2.470800) (xy -0.418038 2.472252) (xy -0.418038 2.745118) (xy -2.410687 2.745118) (xy -2.410687 2.472252) (xy -2.401629 2.470792)
     (xy -2.395728 2.470071) (xy -2.385042 2.469002) (xy -2.370347 2.467650) (xy -2.352415 2.466081) (xy -2.332023 2.464360) (xy -2.309943 2.462555) (xy -2.286951 2.460729) (xy -2.263819 2.458949)
     (xy -2.250439 2.457949) (xy -2.213827 2.454576) (xy -2.176697 2.449908) (xy -2.140033 2.444135) (xy -2.104823 2.437447) (xy -2.072052 2.430034) (xy -2.042706 2.422087) (xy -2.017770 2.413796)
     (xy -2.013868 2.412298) (xy -1.978379 2.395928) (xy -1.946446 2.375907) (xy -1.916834 2.351423) (xy -1.907761 2.342628) (xy -1.886388 2.318972) (xy -1.868229 2.293871) (xy -1.852916 2.266556)
     (xy -1.840080 2.236255) (xy -1.829354 2.202200) (xy -1.820370 2.163621) (xy -1.819089 2.157077) (xy -1.812958 2.125028) (xy -1.812201 1.017923) (xy -1.811444 -0.089181) (xy -1.460346 -0.089181)
     (xy -1.460346 -1.402160) (xy -1.460345 -1.505139) (xy -1.460340 -1.602697) (xy -1.460335 -1.694986) (xy -1.460331 -1.782159) (xy -1.460329 -1.864368) (xy -1.460331 -1.941766) (xy -1.460339 -2.014505)
     (xy -1.460355 -2.082737) (xy -1.460380 -2.146616) (xy -1.460417 -2.206294) (xy -1.460465 -2.261924) (xy -1.460529 -2.313657) (xy -1.460608 -2.361646) (xy -1.460705 -2.406045) (xy -1.460821 -2.447005)
     (xy -1.460959 -2.484679) (xy -1.461119 -2.519219) (xy -1.461304 -2.550778) (xy -1.461515 -2.579509) (xy -1.461754 -2.605564) (xy -1.462023 -2.629095) (xy -1.462323 -2.650256) (xy -1.462655 -2.669198)
     (xy -1.463023 -2.686074) (xy -1.463427 -2.701036) (xy -1.463868 -2.714238) (xy -1.464350 -2.725832) (xy -1.464873 -2.735969) (xy -1.465439 -2.744804) (xy -1.466050 -2.752487) (xy -1.466707 -2.759172)
     (xy -1.467413 -2.765012) (xy -1.468168 -2.770158) (xy -1.468975 -2.774764) (xy -1.469835 -2.778981) (xy -1.470750 -2.782963) (xy -1.471722 -2.786862) (xy -1.472752 -2.790829) (xy -1.473842 -2.795019)
     (xy -1.474994 -2.799583) (xy -1.475876 -2.803246) (xy -1.485951 -2.840239) (xy -1.498935 -2.878647) (xy -1.514320 -2.917384) (xy -1.531597 -2.955360) (xy -1.550259 -2.991486) (xy -1.569796 -3.024675)
     (xy -1.589700 -3.053838) (xy -1.597890 -3.064431) (xy -1.613329 -3.082304) (xy -1.631118 -3.100798) (xy -1.649833 -3.118554) (xy -1.668050 -3.134211) (xy -1.682043 -3.144826) (xy -1.707028 -3.160478)
     (xy -1.734588 -3.174158) (xy -1.765360 -3.186095) (xy -1.799981 -3.196519) (xy -1.839088 -3.205659) (xy -1.864450 -3.210530) (xy -1.877478 -3.212679) (xy -1.895180 -3.215331) (xy -1.916690 -3.218374)
     (xy -1.941144 -3.221696) (xy -1.967675 -3.225184) (xy -1.995417 -3.228726) (xy -2.023506 -3.232212) (xy -2.051075 -3.235527) (xy -2.077260 -3.238562) (xy -2.101193 -3.241202) (xy -2.102732 -3.241366)
     (xy -2.117713 -3.242986) (xy -2.134058 -3.244793) (xy -2.148525 -3.246430) (xy -2.150109 -3.246613) (xy -2.161526 -3.247841) (xy -2.176623 -3.249333) (xy -2.193524 -3.250910) (xy -2.210354 -3.252392)
     (xy -2.212118 -3.252542) (xy -2.251832 -3.255891) (xy -2.251832 -3.389280) (xy -2.251814 -3.420349) (xy -2.251752 -3.446290) (xy -2.251632 -3.467548) (xy -2.251440 -3.484567) (xy -2.251162 -3.497794)
     (xy -2.250785 -3.507674) (xy -2.250294 -3.514651) (xy -2.249677 -3.519172) (xy -2.248919 -3.521681) (xy -2.248006 -3.522624) (xy -2.247709 -3.522668) (xy -2.243572 -3.522845) (xy -2.234976 -3.523333)
     (xy -2.223021 -3.524064) (xy -2.208807 -3.524974) (xy -2.202421 -3.525394) (xy -2.187138 -3.526395) (xy -2.167803 -3.527646) (xy -2.145930 -3.529049) (xy -2.123029 -3.530507) (xy -2.100613 -3.531925)
     (xy -2.093674 -3.532361) (xy -2.069183 -3.533899) (xy -2.041331 -3.535648) (xy -2.012322 -3.537471) (xy -1.984359 -3.539229) (xy -1.959642 -3.540784) (xy -1.958509 -3.540855) (xy -1.934238 -3.542382)
     (xy -1.906812 -3.544106) (xy -1.878372 -3.545893) (xy -1.851058 -3.547608) (xy -1.827009 -3.549118) (xy -1.825433 -3.549217) (xy -1.770105 -3.552693) (xy -1.710151 -3.556467) (xy -1.646505 -3.560480)
     (xy -1.580103 -3.564674) (xy -1.562069 -3.565814) (xy -1.537843 -3.567344) (xy -1.510406 -3.569075) (xy -1.481931 -3.570868) (xy -1.454589 -3.572589) (xy -1.430551 -3.574099) (xy -1.429690 -3.574153)
     (xy -1.407756 -3.575530) (xy -1.384953 -3.576963) (xy -1.360672 -3.578491) (xy -1.334305 -3.580153) (xy -1.305244 -3.581985) (xy -1.272880 -3.584027) (xy -1.236604 -3.586318) (xy -1.195810 -3.588895)
     (xy -1.163539 -3.590933) (xy -1.102455 -3.594789) (xy -1.041623 -3.598621) (xy -0.982528 -3.602335) (xy -0.926659 -3.605839) (xy -0.896692 -3.607714) (xy -0.874912 -3.609088) (xy -0.852298 -3.610537)
     (xy -0.830321 -3.611964) (xy -0.810456 -3.613274) (xy -0.794176 -3.614371) (xy -0.789683 -3.614681) (xy -0.750258 -3.617423) (xy -0.730881 -3.597218) )(layer F.Mask) (width  0.010000)
  )
)
