(footprint "TEMT6000X01"
	(version 20240108)
	(generator "pcbnew")
	(generator_version "8.0")
	(layer "F.Cu")
	(property "Reference" "REF**"
		(at 0.85 -3.65 0)
		(unlocked yes)
		(layer "F.SilkS")
		(uuid "51b82026-374f-4be3-946a-7cf0f80c71e2")
		(effects
			(font
				(size 1 1)
				(thickness 0.15)
			)
		)
	)
	(property "Value" "TEMT6000X01"
		(at 0.1 5.35 0)
		(unlocked yes)
		(layer "F.Fab")
		(uuid "de0a7b59-0a2a-49d6-9514-bd459131728d")
		(effects
			(font
				(size 1 1)
				(thickness 0.15)
			)
		)
	)
	(property "Footprint" ""
		(at 0 0 0)
		(unlocked yes)
		(layer "F.Fab")
		(hide yes)
		(uuid "4c4b23cd-1c32-4242-9689-96ea7449103b")
		(effects
			(font
				(size 1 1)
				(thickness 0.15)
			)
		)
	)
	(property "Datasheet" ""
		(at 0 0 0)
		(unlocked yes)
		(layer "F.Fab")
		(hide yes)
		(uuid "5d63257f-1014-4e16-a489-e9d208d769d4")
		(effects
			(font
				(size 1 1)
				(thickness 0.15)
			)
		)
	)
	(property "Description" ""
		(at 0 0 0)
		(unlocked yes)
		(layer "F.Fab")
		(hide yes)
		(uuid "f7b046fb-1b8e-45a9-83c7-e4714ed243e8")
		(effects
			(font
				(size 1 1)
				(thickness 0.15)
			)
		)
	)
	(attr smd)
	(fp_line
		(start -1.2 -1.8)
		(end -1.2 1.8)
		(stroke
			(width 0.12)
			(type default)
		)
		(layer "F.SilkS")
		(uuid "ce49177a-1c76-447b-9773-e3324ae67a70")
	)
	(fp_line
		(start -1.2 -1.8)
		(end -1.05 -1.8)
		(stroke
			(width 0.12)
			(type default)
		)
		(layer "F.SilkS")
		(uuid "61068f5b-a9d3-4dde-b052-33f69b11f8cd")
	)
	(fp_line
		(start -1.2 1.8)
		(end -0.7 1.8)
		(stroke
			(width 0.12)
			(type default)
		)
		(layer "F.SilkS")
		(uuid "cf10be2d-8ed6-4c95-8439-56e465e542be")
	)
	(fp_line
		(start 1.2 -1.8)
		(end 1.05 -1.8)
		(stroke
			(width 0.12)
			(type default)
		)
		(layer "F.SilkS")
		(uuid "cd164d09-def9-4fde-b4d0-24bd4481033c")
	)
	(fp_line
		(start 1.2 -1.8)
		(end 1.2 1.8)
		(stroke
			(width 0.12)
			(type default)
		)
		(layer "F.SilkS")
		(uuid "eee36950-dcd4-4c3a-baa9-d2462ecf69b5")
	)
	(fp_line
		(start 1.2 1.8)
		(end 0.7 1.8)
		(stroke
			(width 0.12)
			(type default)
		)
		(layer "F.SilkS")
		(uuid "077268d6-5189-4146-b684-8b19c6f40ed8")
	)
	(fp_rect
		(start -1.2 -2.5)
		(end 1.2 2.5)
		(stroke
			(width 0.05)
			(type default)
		)
		(fill none)
		(layer "F.CrtYd")
		(uuid "518a1f61-4e97-45b3-b287-2d5f9d790728")
	)
	(fp_text user "${REFERENCE}"
		(at 0 3.65 0)
		(unlocked yes)
		(layer "F.Fab")
		(uuid "362aa752-764f-4d66-8945-93b30a551dba")
		(effects
			(font
				(size 1 1)
				(thickness 0.15)
			)
		)
	)
	(pad "1" smd roundrect
		(at 0 1.775)
		(size 1 1.1)
		(layers "F.Cu" "F.Paste" "F.Mask")
		(roundrect_rratio 0.05)
		(thermal_bridge_angle 45)
		(uuid "33dd895e-4aca-4ed6-8841-4416d87d4f88")
	)
	(pad "2" smd roundrect
		(at -0.55 -1.775)
		(size 0.8 1.1)
		(layers "F.Cu" "F.Paste" "F.Mask")
		(roundrect_rratio 0.05)
		(thermal_bridge_angle 45)
		(uuid "37d759d5-c585-4ade-987c-2166e8812a55")
	)
	(pad "2" smd roundrect
		(at 0.55 -1.775)
		(size 0.8 1.1)
		(layers "F.Cu" "F.Paste" "F.Mask")
		(roundrect_rratio 0.05)
		(thermal_bridge_angle 45)
		(uuid "11ac5231-f634-4916-80b1-e2de693c3fd8")
	)
)